set_tb.vcd
$date
	Wed May  1 16:29:54 2024
$end
$version
	Icarus Verilog
$end
$timescale
	1s
$end
$scope module set_tb $end
$var wire 64 ! o_addr [63:0] $end
$var wire 1 " miss $end
$var wire 1 # hit $end
$var reg 1 $ clk $end
$var reg 1 % insert $end
$var reg 64 & pa [63:0] $end
$var reg 12 ' pcid [11:0] $end
$var reg 1 ( shutdown $end
$var reg 64 ) va [63:0] $end
$scope module TLB $end
$var wire 1 $ clk $end
$var wire 1 % insert $end
$var wire 64 * pa [63:0] $end
$var wire 12 + pcid [11:0] $end
$var wire 1 ( shutdown $end
$var wire 64 , va [63:0] $end
$var wire 49 - tag [48:0] $end
$var wire 3 . set [2:0] $end
$var wire 12 / local_addr [11:0] $end
$var reg 1 # hit $end
$var reg 1 " miss $end
$var reg 64 0 prev_addr [63:0] $end
$var reg 12 1 prev_pcid [11:0] $end
$var reg 3 2 state [2:0] $end
$var reg 64 3 ta [63:0] $end
$var reg 8 4 write [7:0] $end
$var integer 32 5 a [31:0] $end
$scope function new_plru $end
$var reg 7 6 mask [6:0] $end
$var reg 7 7 old_plru [6:0] $end
$var reg 7 8 value [6:0] $end
$upscope $end
$scope begin ways[0] $end
$scope module w $end
$var integer 32 9 i [31:0] $end
$upscope $end
$upscope $end
$scope begin ways[1] $end
$scope module w $end
$var integer 32 : i [31:0] $end
$upscope $end
$upscope $end
$scope begin ways[2] $end
$scope module w $end
$var integer 32 ; i [31:0] $end
$upscope $end
$upscope $end
$scope begin ways[3] $end
$scope module w $end
$var integer 32 < i [31:0] $end
$upscope $end
$upscope $end
$scope begin ways[4] $end
$scope module w $end
$var integer 32 = i [31:0] $end
$upscope $end
$upscope $end
$scope begin ways[5] $end
$scope module w $end
$var integer 32 > i [31:0] $end
$upscope $end
$upscope $end
$scope begin ways[6] $end
$scope module w $end
$var integer 32 ? i [31:0] $end
$upscope $end
$upscope $end
$scope begin ways[7] $end
$scope module w $end
$var integer 32 @ i [31:0] $end
$upscope $end
$upscope $end
$upscope $end
$upscope $end
$enddefinitions $end
#0
$dumpvars
b1000 @
b1000 ?
b1000 >
b1000 =
b1000 <
b1000 ;
b1000 :
b1000 9
bx 8
bx 7
bx 6
b1000 5
b0 4
bx 3
b0 2
b0 1
b0 0
b111111110001 /
b111 .
b1111111111111111111111111111111111111111111111111 -
b1111111111111111111111111111111111111111111111111111111111110001 ,
b0 +
b0 *
b1111111111111111111111111111111111111111111111111111111111110001 )
0(
b0 '
b0 &
0%
0$
x#
x"
bx !
$end
#1
0#
0"
b1111111111111111111111111111111111111111111111111111111111110001 0
b1 2
1$
#2
0$
#3
1"
b10 2
0#
bx111111110001 !
bx111111110001 3
1$
#4
0$
#5
b100 2
b111111110001 !
b111111110001 3
1$
#6
0$
#7
b0 2
1$
#8
0$
#9
0"
1$
#10
0$
b1 '
b1 +
#11
b1 1
b1 2
1$
#12
0$
#13
1"
b10 2
0#
1$
#14
0$
#15
b100 2
1$
#16
0$
#17
b0 2
1$
#18
0$
#19
0"
1$
#20
0$
b0 '
b0 +
#21
b0 1
b1 2
1$
#22
0$
#23
bz111111110001 !
bz111111110001 3
b0 2
1#
b1010110 7
b1000101 6
b1000101 8
1$
#24
0$
#25
0#
1$
#26
0$
#27
1$
#28
0$
#29
1$
#30
0$
b1 '
b1 +
#31
b1 1
b1 2
1$
#32
0$
#33
b0 2
1#
b1000101 7
b10011 6
b10010 8
1$
#34
0$
#35
0#
1$
#36
0$
#37
1$
#38
0$
#39
1$
#40
0$
b0 '
b0 +
#41
b0 1
b1 2
1$
#42
0$
#43
b0 2
1#
b10010 7
b1000101 6
b1000101 8
1$
#44
0$
#45
0#
1$
#46
0$
#47
1$
#48
0$
#49
1$
#50
0$
b1 '
b1 +
#51
b1 1
b1 2
1$
#52
0$
#53
b0 2
1#
b1000101 7
b10011 6
b10010 8
1$
#54
0$
#55
0#
1$
