set_tb.vcd
$date
	Mon Apr 29 22:16:23 2024
$end
$version
	Icarus Verilog
$end
$timescale
	1s
$end
$scope module set_tb $end
$var wire 64 ! o_addr [63:0] $end
$var wire 1 " miss $end
$var wire 1 # hit $end
$var reg 1 $ clk $end
$var reg 64 % pa [63:0] $end
$var reg 12 & pcid [11:0] $end
$var reg 64 ' va [63:0] $end
$scope module TLB $end
$var wire 1 $ clk $end
$var wire 64 ( pa [63:0] $end
$var wire 12 ) pcid [11:0] $end
$var wire 64 * va [63:0] $end
$var wire 49 + tag [48:0] $end
$var wire 3 , set [2:0] $end
$var wire 12 - local_addr [11:0] $end
$var reg 1 # hit $end
$var reg 1 " miss $end
$var reg 64 . prev_addr [63:0] $end
$var reg 2 / state [1:0] $end
$var reg 64 0 ta [63:0] $end
$scope begin init $end
$var integer 32 1 a [31:0] $end
$var integer 32 2 i [31:0] $end
$upscope $end
$upscope $end
$upscope $end
$enddefinitions $end
#0
$dumpvars
b1000 2
b1000 1
bx 0
b0 /
b0 .
b111111110001 -
b111 ,
b1111111111111111111111111111111111111111111111111 +
b1111111111111111111111111111111111111111111111111111111111110001 *
b0 )
b0 (
b1111111111111111111111111111111111111111111111111111111111110001 '
b0 &
b0 %
0$
x#
x"
bx !
$end
#1
b1111111111111111111111111111111111111111111111111111111111110001 .
b1 /
0#
0"
1$
#2
0$
#3
b10 /
0#
bx111111110001 !
bx111111110001 0
1$
#4
0$
#5
b0 /
b111111110001 !
b111111110001 0
1"
1$
#6
0$
#7
0"
1$
#8
0$
#9
1$
#10
b0 -
b0 ,
b0 +
0$
b0 '
b0 *
#11
b0 .
b1 /
1$
#12
0$
#13
b0 /
1#
b0 !
b0 0
1$
#14
0$
#15
0#
1$
#16
0$
#17
1$
#18
0$
#19
1$
#20
b111111110001 -
b111 ,
b1111111111111111111111111111111111111111111111111 +
0$
b1111111111111111111111111111111111111111111111111111111111110001 '
b1111111111111111111111111111111111111111111111111111111111110001 *
#21
b1111111111111111111111111111111111111111111111111111111111110001 .
b1 /
1$
#22
0$
#23
b0 /
1#
b111111110001 !
b111111110001 0
1$
#24
0$
#25
0#
1$
