tlb_tb.vcd
$date
	Wed May  1 22:46:59 2024
$end
$version
	Icarus Verilog
$end
$timescale
	1s
$end
$scope module tlb_tb $end
$var wire 64 ! stat_prefetch [63:0] $end
$var wire 64 " stat_miss [63:0] $end
$var wire 64 # stat_hit [63:0] $end
$var wire 64 $ o_addr [63:0] $end
$var wire 1 % miss $end
$var wire 1 & hit $end
$var reg 1 ' clk $end
$var reg 1 ( insert $end
$var reg 64 ) pa [63:0] $end
$var reg 12 * pcid [11:0] $end
$var reg 1 + shutdown $end
$var reg 64 , va [63:0] $end
$scope module MMU $end
$var wire 1 ' clk $end
$var wire 64 - out1 [63:0] $end
$var wire 64 . out2 [63:0] $end
$var wire 64 / out3 [63:0] $end
$var wire 1 ( tlb_prefetch $end
$var wire 1 % tlb_miss $end
$var wire 1 & tlb_hit $end
$var reg 64 0 dTLB_hit [63:0] $end
$var reg 64 1 dTLB_miss [63:0] $end
$var reg 64 2 dTLB_prefetch [63:0] $end
$var reg 3 3 prev_state_reg [2:0] $end
$upscope $end
$scope module TLB $end
$var wire 1 ' clk $end
$var wire 1 ( insert $end
$var wire 64 4 pa [63:0] $end
$var wire 12 5 pcid [11:0] $end
$var wire 1 + shutdown $end
$var wire 64 6 va [63:0] $end
$var wire 49 7 tag [48:0] $end
$var wire 3 8 set [2:0] $end
$var wire 12 9 local_addr [11:0] $end
$var reg 1 & hit $end
$var reg 1 % miss $end
$var reg 64 : prev_addr [63:0] $end
$var reg 12 ; prev_pcid [11:0] $end
$var reg 3 < state [2:0] $end
$var reg 64 = ta [63:0] $end
$var reg 8 > write [7:0] $end
$var integer 32 ? a [31:0] $end
$scope function new_plru $end
$var reg 7 @ mask [6:0] $end
$var reg 7 A old_plru [6:0] $end
$var reg 7 B value [6:0] $end
$upscope $end
$scope begin ways[0] $end
$scope module w $end
$var integer 32 C i [31:0] $end
$upscope $end
$upscope $end
$scope begin ways[1] $end
$scope module w $end
$var integer 32 D i [31:0] $end
$upscope $end
$upscope $end
$scope begin ways[2] $end
$scope module w $end
$var integer 32 E i [31:0] $end
$upscope $end
$upscope $end
$scope begin ways[3] $end
$scope module w $end
$var integer 32 F i [31:0] $end
$upscope $end
$upscope $end
$scope begin ways[4] $end
$scope module w $end
$var integer 32 G i [31:0] $end
$upscope $end
$upscope $end
$scope begin ways[5] $end
$scope module w $end
$var integer 32 H i [31:0] $end
$upscope $end
$upscope $end
$scope begin ways[6] $end
$scope module w $end
$var integer 32 I i [31:0] $end
$upscope $end
$upscope $end
$scope begin ways[7] $end
$scope module w $end
$var integer 32 J i [31:0] $end
$upscope $end
$upscope $end
$scope begin shutdown_tlb $end
$var integer 32 K s_ind [31:0] $end
$upscope $end
$upscope $end
$upscope $end
$enddefinitions $end
#0
$dumpvars
bx K
b1000 J
b1000 I
b1000 H
b1000 G
b1000 F
b1000 E
b1000 D
b1000 C
bx B
bx A
bx @
b1000 ?
b0 >
bx =
b0 <
b0 ;
b0 :
b111111110001 9
b111 8
b1111111111111111111111111111111111111111111111111 7
b1111111111111111111111111111111111111111111111111111111111110001 6
b0 5
b0 4
b0 3
b0 2
b0 1
b0 0
b0 /
b0 .
b0 -
b1111111111111111111111111111111111111111111111111111111111110001 ,
0+
b0 *
b0 )
0(
0'
x&
x%
bx $
b0 #
b0 "
b0 !
$end
#1
0&
0%
b1111111111111111111111111111111111111111111111111111111111110001 :
b1 <
b0xx 3
1'
#2
0'
#3
b0 3
1%
b10 <
0&
bx111111110001 $
bx111111110001 =
1'
#4
0'
#5
b100 <
b111111110001 $
b111111110001 =
b10 3
b1 "
b1 .
b1 1
1'
#6
0'
#7
b0 <
1'
#8
0'
#9
0%
1'
#10
0'
#11
b0 3
b101 <
1'
1+
#12
0'
0+
#13
b0 <
b100 3
b1 !
b1 /
b1 2
b1000 K
1'
1(
#14
0'
#15
b100 <
1'
#16
0'
#17
b0 <
b0 3
1'
0(
#18
0'
b1 *
b1 5
#19
b1 ;
b1 <
1'
#20
0'
#21
1%
b10 <
0&
1'
#22
0'
#23
b10 3
b10 "
b10 .
b10 1
b100 <
1'
#24
0'
#25
b0 <
1'
#26
0'
#27
0%
1'
#28
0'
b0 *
b0 5
#29
b0 ;
b1 <
b0 3
1'
#30
0'
#31
b0 <
1&
b1110011 A
b10011 @
b10010 B
1'
#32
0'
#33
0&
b1 3
b1 #
b1 -
b1 0
1'
#34
0'
#35
b0 3
1'
#36
0'
#37
1'
#38
0'
b1 *
b1 5
#39
b1 ;
b1 <
1'
#40
0'
#41
b0 <
1&
b10010 A
b100101 @
b100001 B
1'
#42
0'
#43
b1 3
b10 #
b10 -
b10 0
0&
1'
#44
0'
#45
b0 3
1'
#46
0'
#47
1'
#48
0'
b0 *
b0 5
#49
b0 ;
b1 <
1'
#50
0'
#51
b0 <
1&
b100001 A
b10011 @
b10010 B
1'
#52
0'
#53
0&
b1 3
b11 #
b11 -
b11 0
1'
#54
0'
#55
b0 3
1'
#56
0'
#57
1'
#58
0'
b1 *
b1 5
#59
b1 ;
b1 <
1'
#60
0'
#61
b0 <
1&
b10010 A
b100101 @
b100001 B
1'
#62
0'
#63
b1 3
b100 #
b100 -
b100 0
0&
1'
#64
0'
#65
b0 3
1'
